{
  "server" : {
    "server"       : {},
    "connections"  : [
      {
        "port"  : 8000,
        "host"  : "0.0.0.0",
        "labels": ["web"]
      }
    ]
  },
  "plugins" : {
    "config" : {
      "setup" :  {
        "select": ["web"],
        "routes": {
          "prefix": "/config"
        }
      },
      "options" : {
        "ds-handler": {
          "write-store": {
            "user": "postgres://zubia_prod:7CtCWaXfmuvZ8nB@zubia-prod.cdhkuvxnidro.us-east-1.rds.amazonaws.com:5432/user"
          }
        }
      }
    },
    "healthy" : {
      "setup" :  {
        "select": ["web"],
        "routes": {
          "prefix": "/healthy"
        }
      },
      "options" : {
      }
    },
    "user" : {
      "setup" :  {
        "select": ["web"],
        "routes": {
          "prefix": "/user"
        }
      },
      "options" : {
        "broadcast-api": "http://broadcast-api-prod.us-east-1.elasticbeanstalk.com/broadcast/",
        "channels-api": "http://channel-api-prod.us-east-1.elasticbeanstalk.com/",
        "aws": {
          "accessKeyId": "AKIAIVUQXMESL64GZCXQ",
          "secretAccessKey": "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",
          "region": "us-east-1"
        },
        "email": {
          "from" : "Zubia Support <support@zubialive.com>",
          "admins": [
            "gabrielpoamaneagra@gmail.com"
          ]
        }
      }
    },
    "zubia-auth": {
      "options": {
        "auth-api": "http://auth-api-prod.us-east-1.elasticbeanstalk.com/auth/"
      }
    }
  }
}
